\relax 
\providecommand\hyper@newdestlabel[2]{}
\catcode `"\active 
\catcode `<\active 
\catcode `>\active 
\@nameuse{es@quoting}
\providecommand\HyperFirstAtBeginDocument{\AtBeginDocument}
\HyperFirstAtBeginDocument{\ifx\hyper@anchor\@undefined
\global\let\oldcontentsline\contentsline
\gdef\contentsline#1#2#3#4{\oldcontentsline{#1}{#2}{#3}}
\global\let\oldnewlabel\newlabel
\gdef\newlabel#1#2{\newlabelxx{#1}#2}
\gdef\newlabelxx#1#2#3#4#5#6{\oldnewlabel{#1}{{#2}{#3}}}
\AtEndDocument{\ifx\hyper@anchor\@undefined
\let\contentsline\oldcontentsline
\let\newlabel\oldnewlabel
\fi}
\fi}
\global\let\hyper@last\relax 
\gdef\HyperFirstAtBeginDocument#1{#1}
\providecommand\HyField@AuxAddToFields[1]{}
\providecommand\HyField@AuxAddToCoFields[2]{}
\select@language{spanish}
\@writefile{toc}{\select@language{spanish}}
\@writefile{lof}{\select@language{spanish}}
\@writefile{lot}{\select@language{spanish}}
\citation{viola2001rapid}
\citation{viola2001rapid}
\citation{lienhart2002extended}
\citation{viola2001rapid}
\@writefile{toc}{\contentsline {section}{\numberline {1}Introducci\IeC {\'o}n}{1}{section.1}}
\@writefile{toc}{\contentsline {section}{\numberline {2}Algoritmo de Viola y Jones}{1}{section.2}}
\@writefile{toc}{\contentsline {subsection}{\numberline {2.1}Fase de entrenamiento}{1}{subsection.2.1}}
\@writefile{lof}{\contentsline {figure}{\numberline {1}{\ignorespaces Filtros de Haar\relax }}{2}{figure.caption.1}}
\providecommand*\caption@xref[2]{\@setref\relax\@undefined{#1}}
\newlabel{fig:filtrosbase}{{1}{2}{Filtros de Haar\relax }{figure.caption.1}{}}
\@writefile{toc}{\contentsline {subsubsection}{\numberline {2.1.1}Imagen Integral}{2}{subsubsection.2.1.1}}
\@writefile{toc}{\contentsline {subsection}{\numberline {2.2}Fase de detecci\IeC {\'o}n}{2}{subsection.2.2}}
\@writefile{lof}{\contentsline {figure}{\numberline {2}{\ignorespaces Esquema de detecci\IeC {\'o}n en cascada\relax }}{2}{figure.caption.2}}
\newlabel{fig:cascada}{{2}{2}{Esquema de detección en cascada\relax }{figure.caption.2}{}}
\@writefile{toc}{\contentsline {section}{\numberline {3}Experimentos}{3}{section.3}}
\@writefile{toc}{\contentsline {subsubsection}{\numberline {3.0.1}Hardware}{3}{subsubsection.3.0.1}}
\@writefile{toc}{\contentsline {subsubsection}{\numberline {3.0.2}Entrenamiento del clasificador en cascada}{3}{subsubsection.3.0.2}}
\newlabel{subfig:positiva}{{3a}{3}{Subfigure 3a}{subfigure.3.1}{}}
\newlabel{sub@subfig:positiva}{{(a)}{a}{Subfigure 3a\relax }{subfigure.3.1}{}}
\newlabel{subfig:negativa}{{3b}{3}{Subfigure 3b}{subfigure.3.2}{}}
\newlabel{sub@subfig:negativa}{{(b)}{b}{Subfigure 3b\relax }{subfigure.3.2}{}}
\@writefile{lof}{\contentsline {figure}{\numberline {3}{\ignorespaces Muestra de im\IeC {\'a}genes de entrada para la fase de entrenamiento\relax }}{3}{figure.caption.3}}
\newlabel{fig:imagenes}{{3}{3}{Muestra de imágenes de entrada para la fase de entrenamiento\relax }{figure.caption.3}{}}
\@writefile{lof}{\contentsline {subfigure}{\numberline{(a)}{\ignorespaces {Ejemplo de imagen positiva}}}{3}{subfigure.3.1}}
\@writefile{lof}{\contentsline {subfigure}{\numberline{(b)}{\ignorespaces {Ejemplo de imagen negativa}}}{3}{subfigure.3.2}}
\@writefile{toc}{\contentsline {subsubsection}{\numberline {3.0.3}Resultados}{3}{subsubsection.3.0.3}}
\@writefile{lot}{\contentsline {table}{\numberline {1}{\ignorespaces Resultados de detecci\IeC {\'o}n sobre im\IeC {\'a}genes controladas\relax }}{4}{table.caption.4}}
\newlabel{table:ds1}{{1}{4}{Resultados de detección sobre imágenes controladas\relax }{table.caption.4}{}}
\@writefile{lot}{\contentsline {table}{\numberline {2}{\ignorespaces Resultados de detecci\IeC {\'o}n sobre im\IeC {\'a}genes no controladas - Parte 1\relax }}{5}{table.2}}
\citation{masek2013speeding}
\citation{krpec2012face}
\citation{kong2010gpu}
\@writefile{lot}{\contentsline {table}{\numberline {3}{\ignorespaces Resultados de detecci\IeC {\'o}n sobre im\IeC {\'a}genes no controladas - Parte 2\relax }}{6}{table.3}}
\@writefile{toc}{\contentsline {section}{\numberline {4}Consideraciones finales}{6}{section.4}}
\bibstyle{plainnat-es}
\bibdata{informe}
\bibcite{kong2010gpu}{{1}{2010}{{Kong y Deng}}{{Kong and Deng}}}
\bibcite{krpec2012face}{{2}{2012}{{Krpec y N{\v {e}}mec}}{{Krpec and N{\v {e}}mec}}}
\bibcite{lienhart2002extended}{{3}{2002}{{Lienhart y Maydt}}{{Lienhart and Maydt}}}
\bibcite{masek2013speeding}{{4}{2013}{{Masek et~al.}}{{Masek, Burget, Uher, and Guney}}}
\bibcite{viola2001rapid}{{5}{2001}{{Viola y Jones}}{{Viola and Jones}}}
